…
``` r
non_randomized_devices =
  data2 %>%
  filter(BSSID != '(not associated)') %>%
  filter(grepl("^[0-9A-Fa-f]{2}(:[0-9A-Fa-f]{2}){5}$", BSSID)) %>%
  group_by(BSSID) %>%
  summarise(count = n()) %>%
  filter(count == 1) %>%  
  select(BSSID)
print(unique(non_randomized_devices))
```

    # A tibble: 51 × 1
       BSSID            
       <chr>            
     1 00:03:7F:10:17:56
     2 00:0D:97:6B:93:DF
     3 00:23:EB:E3:49:31
     4 00:26:99:F2:7A:E1
     5 00:AB:0A:00:10:10
     6 02:67:F1:B0:6C:98
     7 0A:C5:E1:DB:17:7B
     8 12:48:F9:CF:58:8E
     9 1E:C2:8E:D8:30:91
    10 22:C9:7F:A9:BA:9C
    # ℹ 41 more rows

### Задание 3: Кластеризовать запросы от устройств к точкам доступа по их именам. Определить время появления устройства в зоне радиовидимости и время выхода его из нее.

``` r
device_visibility =
  data2 %>% 
  group_by(Probed.ESSIDs) %>% 
  summarise(
  first_seen = min(First.time.seen, na.rm = TRUE),
  last_seen = max(Last.time.seen, na.rm = TRUE),
  .groups = 'drop' )
print(device_visibility)
```

    # A tibble: 108 × 3
       Probed.ESSIDs                first_seen          last_seen          
       <chr>                        <dttm>              <dttm>             
     1 -D-13-                       2023-07-28 09:14:42 2023-07-28 10:26:42
     2 1                            2023-07-28 10:36:12 2023-07-28 11:56:13
     3 107                          2023-07-28 10:29:43 2023-07-28 10:29:43
     4 531                          2023-07-28 10:57:04 2023-07-28 10:57:04
     5 AAAAAOB/CC0ADwGkRedmi 3S     2023-07-28 09:34:20 2023-07-28 11:44:40
     6 AKADO-D967                   2023-07-28 10:31:55 2023-07-28 10:31:55
     7 AQAAAB6zaIoATwEURedmi Note 5 2023-07-28 10:25:19 2023-07-28 11:51:48
     8 ASUS                         2023-07-28 10:31:13 2023-07-28 10:31:13
     9 Alex-net2                    2023-07-28 10:01:06 2023-07-28 10:01:06
    10 AndroidAP177B                2023-07-28 09:13:09 2023-07-28 11:34:42
    # ℹ 98 more rows
…
most_stable_cluster <- signal_stability %>%
  slice(1)  

print(signal_stability)
```

    # A tibble: 107 × 3
       Probed.ESSIDs  mean_signal sd_signal
       <chr>                <dbl>     <dbl>
     1 Galaxy A71           -48.5     0.707
     2 Kesha                -52       1.41 
     3 podval               -65       1.63 
     4 Tupik                -65.7     2.31 
     5 KB-12                -69       2.83 
     6 Reconn-Guest         -69       2.83 
     7 MT_FREE              -65.4     2.97 
     8 OKB                  -71.7     3.06 
     9 Rayskaya_banya       -68.3     3.06 
    10 IKB                  -55.7     3.06 
    # ℹ 97 more rows
…
