…
    # A tibble: 1 × 2
      name        height
      <chr>        <int>
    1 Yarael Poof    264

### Задание 6: Найти всех персонажей ниже 170.

``` r
 starwars %>% 
  filter(!is.na(height) & height < 170) %>% 
  select(name,height)
```

    # A tibble: 22 × 2
       name                  height
       <chr>                  <int>
     1 C-3PO                    167
     2 R2-D2                     96
     3 Leia Organa              150
     4 Beru Whitesun Lars       165
     5 R5-D4                     97
     6 Yoda                      66
     7 Mon Mothma               150
     8 Wicket Systri Warrick     88
     9 Nien Nunb                160
    10 Watto                    137
    # ℹ 12 more rows

### Задание 7: Подсчитать ИМТ (индекс массы тела) для всех персонажей. (m/h\*\*2)

``` r
 starwars %>% 
  filter(!is.na(height) & !is.na(mass)) %>%
  mutate(IMT = mass/(height/100)**2) %>% 
  select(name,IMT)
```

    # A tibble: 59 × 2
       name                 IMT
       <chr>              <dbl>
     1 Luke Skywalker      26.0
     2 C-3PO               26.9
     3 R2-D2               34.7
     4 Darth Vader         33.3
     5 Leia Organa         21.8
     6 Owen Lars           37.9
     7 Beru Whitesun Lars  27.5
     8 R5-D4               34.0
     9 Biggs Darklighter   25.1
    10 Obi-Wan Kenobi      23.2
    # ℹ 49 more rows
…
### Задание 11: Подсчитать среднюю длину имени в каждой расе вселенной Звездных войн.

``` r
starwars %>% 
  filter(!is.na(species) & !is.na(name)) %>% 
  mutate(name_len = nchar(name)) %>% 
  group_by(species) %>% 
  summarise(n_len = mean(name_len)) 
```

    # A tibble: 37 × 2
       species   n_len
       <chr>     <dbl>
     1 Aleena    12   
     2 Besalisk  15   
     3 Cerean    12   
     4 Chagrian  10   
     5 Clawdite  10   
     6 Droid      4.83
     7 Dug        7   
     8 Ewok      21   
     9 Geonosian 17   
    10 Gungan    11.7 
    # ℹ 27 more rows
…
