…
``` r
work_hours = 
  data %>%
    select(timestamp, src, dst, bytes) %>%
    mutate(hour = hour(as_datetime(timestamp / 1000))) %>%
    filter(hour >= 0 & hour < 24) %>%
    group_by(hour) %>%
    summarise(work_hours = n(), .groups = 'drop') %>%
    arrange(desc(work_hours))

work_hours_df = work_hours %>% collect()
print(work_hours_df)
```

    # A tibble: 24 × 2
        hour work_hours
       <int>      <int>
     1    22   12237573
     2    23   12226575
     3    18   12226457
     4    21   12224721
     5    20   12220671
     6    19   12219218
     7    16   12217746
     8    17   12213523
     9     8     537639
    10     9     495908
    # ℹ 14 more rows
…
